tb/instmemory_tb.vcd
$date
	Sun Apr 27 12:11:26 2025
$end
$version
	Icarus Verilog
$end
$timescale
	1ps
$end
$scope module Instmemory_tb $end
$var wire 32 ! pc_reg [31:0] $end
$var wire 1 " last_instr_flag $end
$var wire 32 # instruct [31:0] $end
$var reg 1 $ clk $end
$var reg 1 % reset $end
$scope module dut $end
$var wire 32 & instruct [31:0] $end
$var wire 32 ' addr [31:0] $end
$var reg 32 ( d [31:0] $end
$var reg 32 ) full_RF_temp [31:0] $end
$var reg 32 * instruct_temp [31:0] $end
$var reg 1 " last_instr_flag $end
$scope begin $ivl_for_loop0 $end
$var integer 32 + i [31:0] $end
$upscope $end
$scope begin $ivl_for_loop1 $end
$var integer 32 , j [31:0] $end
$upscope $end
$scope begin $ivl_for_loop2 $end
$var integer 32 - i [31:0] $end
$upscope $end
$upscope $end
$scope module pc_counter $end
$var wire 1 . branch $end
$var wire 32 / branch_offset [31:0] $end
$var wire 1 $ clk $end
$var wire 1 " finish_flag $end
$var wire 1 % reset $end
$var reg 32 0 pc_reg [31:0] $end
$var reg 32 1 pc_reg_next [31:0] $end
$upscope $end
$upscope $end
$enddefinitions $end
$comment Show the parameter values. $end
$dumpall
$end
#0
$dumpvars
b100 1
b11111111111111111111111111111100 0
bz /
z.
b100000 -
b100000 ,
b10000000 +
b11111111111111111111111111111111 *
bx )
b10000000 (
b11111111111111111111111111111100 '
bx &
1%
0$
bx #
0"
b11111111111111111111111111111100 !
$end
#5000
1$
#10000
0$
0%
#15000
b1100010000001110110011 #
b1100010000001110110011 &
b0 !
b0 '
b0 0
1$
#20000
0$
#25000
b100 !
b100 '
b100 0
1$
#30000
0$
#35000
b1000000010100110000010000110011 #
b1000000010100110000010000110011 &
b1000 !
b1000 '
b1000 0
1$
#40000
0$
#45000
b10100100111010010110011 #
b10100100111010010110011 &
b1100 !
b1100 '
b1100 0
1$
#50000
0$
#55000
b11000100110010100110011 #
b11000100110010100110011 &
b10000 !
b10000 '
b10000 0
1$
#60000
0$
#65000
b101000010000010110010011 #
b101000010000010110010011 &
b10100 !
b10100 '
b10100 0
1$
#70000
0$
#75000
b1100110111011000010011 #
b1100110111011000010011 &
b11000 !
b11000 '
b11000 0
1$
#80000
0$
#85000
b100100110011010010011 #
b100100110011010010011 &
b11100 !
b11100 '
b11100 0
1$
#90000
0$
#95000
b10000010010011100000011 #
b10000010010011100000011 &
b100000 !
b100000 '
b100000 0
1$
#100000
0$
#105000
b111000011010010000100011 #
b111000011010010000100011 &
b100100 !
b100100 '
b100100 0
1$
#110000
0$
#115000
1"
b11111111111111111111111111111111 #
b11111111111111111111111111111111 &
b101000 !
b101000 '
b101000 0
1$
